speedometer_nexys_a7.vcd
$date
	Fri Apr 17 10:55:39 2026
$end
$version
	Icarus Verilog
$end
$timescale
	1ps
$end
$scope module test_speedometer_tb $end
$var wire 7 ! seg [6:0] $end
$var wire 1 " red_led $end
$var wire 8 # an [7:0] $end
$var reg 9 $ captured_pulse_count [8:0] $end
$var reg 13 % captured_speed_cm_s [12:0] $end
$var reg 1 & clk $end
$var reg 1 ' ir1 $end
$var reg 1 ( ir2 $end
$var reg 1 ) led_seen $end
$var reg 1 * reset_btn $end
$var integer 32 + fail_count [31:0] $end
$var integer 32 , pass_count [31:0] $end
$scope module uut $end
$var wire 1 & clk $end
$var wire 1 ' ir1 $end
$var wire 1 ( ir2 $end
$var wire 1 * reset_btn $end
$var wire 1 - reset_n $end
$var wire 1 . timer_reset $end
$var wire 1 / timer_done $end
$var wire 4 0 tens_digit [3:0] $end
$var wire 13 1 speed_cm_s [12:0] $end
$var wire 7 2 seg [6:0] $end
$var wire 1 " red_led $end
$var wire 9 3 pulse_count [8:0] $end
$var wire 4 4 ones_digit [3:0] $end
$var wire 1 5 ir2_clean $end
$var wire 1 6 ir1_clean $end
$var wire 4 7 hundreds_digit [3:0] $end
$var wire 8 8 an [7:0] $end
$var reg 13 9 displayed_speed [12:0] $end
$var reg 30 : hold_counter [29:0] $end
$scope module bcd_conv_inst $end
$var wire 13 ; speed_in [12:0] $end
$var reg 4 < hundreds_out [3:0] $end
$var reg 4 = ones_out [3:0] $end
$var reg 4 > tens_out [3:0] $end
$upscope $end
$scope module clk_div_inst $end
$var wire 1 & clk $end
$var wire 1 - reset_n $end
$var parameter 32 ? MAX_COUNT $end
$var reg 26 @ count [25:0] $end
$var reg 1 / timer_done $end
$var reg 1 . timer_reset $end
$upscope $end
$scope module display_mux $end
$var wire 1 & clk $end
$var wire 4 A hundreds [3:0] $end
$var wire 4 B ones [3:0] $end
$var wire 1 - reset_n $end
$var wire 4 C tens [3:0] $end
$var wire 4 D digit_to_display [3:0] $end
$var reg 8 E an [7:0] $end
$var reg 17 F clk_divider [16:0] $end
$var reg 2 G digit_select [1:0] $end
$var reg 7 H seg [6:0] $end
$upscope $end
$scope module f1 $end
$var wire 1 & clk $end
$var wire 1 ' signal_in $end
$var reg 3 I shift [2:0] $end
$var reg 1 6 signal_out $end
$upscope $end
$scope module f2 $end
$var wire 1 & clk $end
$var wire 1 ( signal_in $end
$var reg 3 J shift [2:0] $end
$var reg 1 5 signal_out $end
$upscope $end
$scope module led_ctrl_inst $end
$var wire 13 K speed_in [12:0] $end
$var parameter 13 L SPEED_LIMIT $end
$var reg 1 " red_led_out $end
$upscope $end
$scope module pulse_cnt_inst $end
$var wire 1 & clk $end
$var wire 1 6 ir1 $end
$var wire 1 5 ir2 $end
$var wire 1 - reset_n $end
$var wire 1 / timer_done $end
$var wire 1 . timer_reset $end
$var wire 2 M curr_state [1:0] $end
$var reg 2 N prev_state [1:0] $end
$var reg 9 O pulse_count_out [8:0] $end
$upscope $end
$scope module speed_calc_inst $end
$var wire 9 P pulse_count_in [8:0] $end
$var reg 13 Q speed_cm_s_out [12:0] $end
$upscope $end
$upscope $end
$scope task apply_reset $end
$upscope $end
$scope task check_display_hold $end
$var integer 32 R expected_displayed_speed [31:0] $end
$var integer 32 S expected_measured_speed [31:0] $end
$var integer 32 T test_id [31:0] $end
$upscope $end
$scope task check_measurement $end
$var integer 32 U expected_led_seen [31:0] $end
$var integer 32 V expected_pulses [31:0] $end
$var integer 32 W expected_speed_cm_s [31:0] $end
$var integer 32 X test_id [31:0] $end
$upscope $end
$scope task fast_forward_to_window_close $end
$upscope $end
$scope task generate_invalid_jump $end
$var integer 32 Y delay_ns [31:0] $end
$upscope $end
$scope task generate_quadrature_cycle $end
$var integer 32 Z delay_ns [31:0] $end
$upscope $end
$scope task generate_short_glitch_noise $end
$upscope $end
$scope task start_test $end
$upscope $end
$upscope $end
$enddefinitions $end
$comment Show the parameter values. $end
$dumpall
b11001000 L
b10111110101111000001111111 ?
$end
#0
$dumpvars
bx Z
bx Y
bx X
bx W
bx V
bx U
bx T
bx S
bx R
b0 Q
b0 P
b0 O
b0 N
bx M
b0 K
bx J
bx I
b1000000 H
b0 G
b0 F
b11111110 E
b0 D
b0 C
b0 B
b0 A
b0 @
b0 >
b0 =
b0 <
b0 ;
b0 :
b0 9
b11111110 8
b0 7
x6
x5
b0 4
b0 3
b1000000 2
b0 1
b0 0
0/
0.
0-
b0 ,
b0 +
1*
0)
0(
0'
0&
b0 %
b0 $
b11111110 #
0"
b1000000 !
$end
#5000
bx0 I
bx0 J
1&
#10000
0&
#15000
bx00 J
bx00 I
1&
#20000
0&
#25000
b0 I
b0 J
1&
#30000
0&
#35000
05
b0 M
06
1&
#40000
0&
#45000
1-
0*
1&
#50000
0&
#55000
b1 @
b1 F
1&
#60000
0&
#65000
b10 F
b10 @
1&
#70000
0&
#75000
b11 @
b11 F
1&
#80000
0&
#85000
b100 F
b100 @
1&
#90000
0&
#95000
b101 @
b101 F
1&
#100000
0&
#105000
b110 F
b110 @
1&
#110000
0&
#115000
b111 @
b111 F
b110010 Z
1&
#120000
0&
#125000
b1000 F
b1000 @
1&
#130000
0&
#135000
b1001 @
b1001 F
1&
#140000
0&
#145000
b1010 F
b1010 @
1&
#150000
0&
#155000
b1011 @
b1011 F
1&
#160000
0&
#165000
b1100 F
b1100 @
b1 J
1&
1(
#170000
0&
#175000
b1101 @
b1101 F
b11 J
1&
#180000
0&
#185000
b1110 F
b1110 @
b111 J
1&
#190000
0&
#195000
b1111 @
b1111 F
b1 M
15
1&
#200000
0&
#205000
b10000 1
b10000 K
b10000 Q
b10000 F
b1 N
b1 3
b1 O
b1 P
b10000 @
1&
#210000
0&
#215000
b10001 @
b10001 F
b1 I
1&
1'
#220000
0&
#225000
b10010 F
b10010 @
b11 I
1&
#230000
0&
#235000
b10011 @
b10011 F
b111 I
1&
#240000
0&
#245000
b10100 F
b10100 @
b11 M
16
1&
#250000
0&
#255000
b100000 1
b100000 K
b100000 Q
b10101 @
b11 N
b10 3
b10 O
b10 P
b10101 F
1&
#260000
0&
#265000
b10110 F
b10110 @
b110 J
1&
0(
#270000
0&
#275000
b10111 @
b10111 F
b100 J
1&
#280000
0&
#285000
b11000 F
b11000 @
b0 J
1&
#290000
0&
#295000
b11001 @
b11001 F
b10 M
05
1&
#300000
0&
#305000
b110000 1
b110000 K
b110000 Q
b11010 F
b10 N
b11 3
b11 O
b11 P
b11010 @
1&
#310000
0&
#315000
b11011 @
b11011 F
b110 I
1&
0'
#320000
0&
#325000
b11100 F
b11100 @
b100 I
1&
#330000
0&
#335000
b11101 @
b11101 F
b0 I
1&
#340000
0&
#345000
b11110 F
b11110 @
b0 M
06
1&
#350000
0&
#355000
b1000000 1
b1000000 K
b1000000 Q
b11111 @
b0 N
b100 3
b100 O
b100 P
b11111 F
1&
#360000
0&
#365000
b100000 F
b100000 @
1&
#370000
0&
#375000
b100001 @
b100001 F
1&
#380000
0&
#385000
b100010 F
b100010 @
1&
#390000
0&
#395000
b100011 @
b100011 F
1&
#400000
0&
#405000
b100100 F
b100100 @
1&
#410000
0&
#415000
b100101 @
b100101 F
b1 J
1&
1(
#420000
0&
#425000
b100110 F
b100110 @
b11 J
1&
#430000
0&
#435000
b100111 @
b100111 F
b111 J
1&
#440000
0&
#445000
b101000 F
b101000 @
b1 M
15
1&
#450000
0&
#455000
b1010000 1
b1010000 K
b1010000 Q
b101001 @
b1 N
b101 3
b101 O
b101 P
b101001 F
1&
#460000
0&
#465000
b101010 F
b101010 @
b1 I
1&
1'
#470000
0&
#475000
b101011 @
b101011 F
b11 I
1&
#480000
0&
#485000
b101100 F
b101100 @
b111 I
1&
#490000
0&
#495000
b101101 @
b101101 F
b11 M
16
1&
#500000
0&
#505000
b1100000 1
b1100000 K
b1100000 Q
b101110 F
b11 N
b110 3
b110 O
b110 P
b101110 @
1&
#510000
0&
#515000
b101111 @
b101111 F
b110 J
1&
0(
#520000
0&
#525000
b110000 F
b110000 @
b100 J
1&
#530000
0&
#535000
b110001 @
b110001 F
b0 J
1&
#540000
0&
#545000
b110010 F
b110010 @
b10 M
05
1&
#550000
0&
#555000
b1110000 1
b1110000 K
b1110000 Q
b110011 @
b10 N
b111 3
b111 O
b111 P
b110011 F
1&
#560000
0&
#565000
b110100 F
b110100 @
b110 I
1&
0'
#570000
0&
#575000
b110101 @
b110101 F
b100 I
1&
#580000
0&
#585000
b110110 F
b110110 @
b0 I
1&
#590000
0&
#595000
b110111 @
b110111 F
b0 M
06
1&
#600000
0&
#605000
b10000000 1
b10000000 K
b10000000 Q
b111000 F
b0 N
b1000 3
b1000 O
b1000 P
b111000 @
1&
#610000
0&
#615000
b111001 @
b111001 F
1&
#620000
b10111110101111000001111110 @
0&
#625000
b111010 F
b10111110101111000001111111 @
1&
#630000
0&
#635000
b10000000 %
b1000 $
1.
1/
b0 @
b111011 F
1&
#640000
0&
#645000
b0 1
b0 K
b0 Q
b0 :
b0 9
b0 ;
b0 F
b0 3
b0 O
b0 P
0.
0/
b0 @
0-
1*
b1 ,
b0 U
b10000000 W
b1000 V
b1 X
1&
#650000
0&
#655000
1&
#660000
0&
#665000
1&
#670000
0&
#675000
1&
#680000
0&
#685000
1&
#690000
0&
#695000
1-
0*
1&
#700000
0&
#705000
b1 @
b1 F
1&
#710000
0&
#715000
b10 F
b10 @
1&
#720000
0&
#725000
b11 @
b11 F
1&
#730000
0&
#735000
b100 F
b100 @
1&
#740000
0&
#745000
b101 @
b101 F
b0 %
b0 $
1&
#750000
0&
#755000
b110 F
b110 @
1&
#760000
0&
#765000
b111 @
b111 F
1&
#770000
0&
#775000
b1000 F
b1000 @
1&
#780000
0&
#785000
b1001 @
b1001 F
1&
#790000
0&
#795000
b1010 F
b1010 @
1&
#800000
0&
#805000
b1011 @
b1011 F
1&
#810000
0&
#815000
b1100 F
b1100 @
b1 J
1&
1(
#820000
0&
#825000
b1101 @
b1101 F
b11 J
1&
#830000
0&
#835000
b1110 F
b1110 @
b111 J
1&
#840000
0&
#845000
b1111 @
b1111 F
b1 M
15
1&
#850000
0&
#855000
b10000 1
b10000 K
b10000 Q
b10000 F
b1 N
b1 3
b1 O
b1 P
b10000 @
1&
#860000
0&
#865000
b10001 @
b10001 F
b1 I
1&
1'
#870000
0&
#875000
b10010 F
b10010 @
b11 I
1&
#880000
0&
#885000
b10011 @
b10011 F
b111 I
1&
#890000
0&
#895000
b10100 F
b10100 @
b11 M
16
1&
#900000
0&
#905000
b100000 1
b100000 K
b100000 Q
b10101 @
b11 N
b10 3
b10 O
b10 P
b10101 F
1&
#910000
0&
#915000
b10110 F
b10110 @
b110 J
1&
0(
#920000
0&
#925000
b10111 @
b10111 F
b100 J
1&
#930000
0&
#935000
b11000 F
b11000 @
b0 J
1&
#940000
0&
#945000
b11001 @
b11001 F
b10 M
05
1&
#950000
0&
#955000
b110000 1
b110000 K
b110000 Q
b11010 F
b10 N
b11 3
b11 O
b11 P
b11010 @
1&
#960000
0&
#965000
b11011 @
b11011 F
b110 I
1&
0'
#970000
0&
#975000
b11100 F
b11100 @
b100 I
1&
#980000
0&
#985000
b11101 @
b11101 F
b0 I
1&
#990000
0&
#995000
b11110 F
b11110 @
b0 M
06
1&
#1000000
0&
#1005000
b1000000 1
b1000000 K
b1000000 Q
b11111 @
b0 N
b100 3
b100 O
b100 P
b11111 F
1&
#1010000
0&
#1015000
b100000 F
b100000 @
1&
#1020000
0&
#1025000
b100001 @
b100001 F
1&
#1030000
0&
#1035000
b100010 F
b100010 @
1&
#1040000
0&
#1045000
b100011 @
b100011 F
1&
#1050000
0&
#1055000
b100100 F
b100100 @
1&
#1060000
0&
#1065000
b100101 @
b100101 F
b1 J
1&
1(
#1070000
0&
#1075000
b100110 F
b100110 @
b11 J
1&
#1080000
0&
#1085000
b100111 @
b100111 F
b111 J
1&
#1090000
0&
#1095000
b101000 F
b101000 @
b1 M
15
1&
#1100000
0&
#1105000
b1010000 1
b1010000 K
b1010000 Q
b101001 @
b1 N
b101 3
b101 O
b101 P
b101001 F
1&
#1110000
0&
#1115000
b101010 F
b101010 @
b1 I
1&
1'
#1120000
0&
#1125000
b101011 @
b101011 F
b11 I
1&
#1130000
0&
#1135000
b101100 F
b101100 @
b111 I
1&
#1140000
0&
#1145000
b101101 @
b101101 F
b11 M
16
1&
#1150000
0&
#1155000
b1100000 1
b1100000 K
b1100000 Q
b101110 F
b11 N
b110 3
b110 O
b110 P
b101110 @
1&
#1160000
0&
#1165000
b101111 @
b101111 F
b110 J
1&
0(
#1170000
0&
#1175000
b110000 F
b110000 @
b100 J
1&
#1180000
0&
#1185000
b110001 @
b110001 F
b0 J
1&
#1190000
0&
#1195000
b110010 F
b110010 @
b10 M
05
1&
#1200000
0&
#1205000
b1110000 1
b1110000 K
b1110000 Q
b110011 @
b10 N
b111 3
b111 O
b111 P
b110011 F
1&
#1210000
0&
#1215000
b110100 F
b110100 @
b110 I
1&
0'
#1220000
0&
#1225000
b110101 @
b110101 F
b100 I
1&
#1230000
0&
#1235000
b110110 F
b110110 @
b0 I
1&
#1240000
0&
#1245000
b110111 @
b110111 F
b0 M
06
1&
#1250000
0&
#1255000
b10000000 1
b10000000 K
b10000000 Q
b111000 F
b0 N
b1000 3
b1000 O
b1000 P
b111000 @
1&
#1260000
0&
#1265000
b111001 @
b111001 F
1&
#1270000
0&
#1275000
b111010 F
b111010 @
1&
#1280000
0&
#1285000
b111011 @
b111011 F
1&
#1290000
0&
#1295000
b111100 F
b111100 @
1&
#1300000
0&
#1305000
b111101 @
b111101 F
1&
#1310000
0&
#1315000
b111110 F
b111110 @
b1 J
1&
1(
#1320000
0&
#1325000
b111111 @
b111111 F
b11 J
1&
#1330000
0&
#1335000
b1000000 F
b1000000 @
b111 J
1&
#1340000
0&
#1345000
b1000001 @
b1000001 F
b1 M
15
1&
#1350000
0&
#1355000
b10010000 1
b10010000 K
b10010000 Q
b1000010 F
b1 N
b1001 3
b1001 O
b1001 P
b1000010 @
1&
#1360000
0&
#1365000
b1000011 @
b1000011 F
b1 I
1&
1'
#1370000
0&
#1375000
b1000100 F
b1000100 @
b11 I
1&
#1380000
0&
#1385000
b1000101 @
b1000101 F
b111 I
1&
#1390000
0&
#1395000
b1000110 F
b1000110 @
b11 M
16
1&
#1400000
0&
#1405000
b10100000 1
b10100000 K
b10100000 Q
b1000111 @
b11 N
b1010 3
b1010 O
b1010 P
b1000111 F
1&
#1410000
0&
#1415000
b1001000 F
b1001000 @
b110 J
1&
0(
#1420000
0&
#1425000
b1001001 @
b1001001 F
b100 J
1&
#1430000
0&
#1435000
b1001010 F
b1001010 @
b0 J
1&
#1440000
0&
#1445000
b1001011 @
b1001011 F
b10 M
05
1&
#1450000
0&
#1455000
b10110000 1
b10110000 K
b10110000 Q
b1001100 F
b10 N
b1011 3
b1011 O
b1011 P
b1001100 @
1&
#1460000
0&
#1465000
b1001101 @
b1001101 F
b110 I
1&
0'
#1470000
0&
#1475000
b1001110 F
b1001110 @
b100 I
1&
#1480000
0&
#1485000
b1001111 @
b1001111 F
b0 I
1&
#1490000
0&
#1495000
b1010000 F
b1010000 @
b0 M
06
1&
#1500000
0&
#1505000
b11000000 1
b11000000 K
b11000000 Q
b1010001 @
b0 N
b1100 3
b1100 O
b1100 P
b1010001 F
1&
#1510000
0&
#1515000
b1010010 F
b1010010 @
1&
#1520000
b10111110101111000001111110 @
0&
#1525000
b10111110101111000001111111 @
b1010011 F
1&
#1530000
0&
#1535000
b11000000 %
b1100 $
b1010100 F
1.
1/
b0 @
1&
#1540000
0&
#1545000
b0 1
b0 K
b0 Q
0.
0/
b0 @
b0 3
b0 O
b0 P
b0 F
b0 :
b0 9
b0 ;
0-
1*
b10 ,
b11000000 W
b1100 V
b10 X
1&
#1550000
0&
#1555000
1&
#1560000
0&
#1565000
1&
#1570000
0&
#1575000
1&
#1580000
0&
#1585000
1&
#1590000
0&
#1595000
1-
0*
1&
#1600000
0&
#1605000
b1 F
b1 @
1&
#1610000
0&
#1615000
b10 @
b10 F
1&
#1620000
0&
#1625000
b11 F
b11 @
1&
#1630000
0&
#1635000
b100 @
b100 F
1&
#1640000
0&
#1645000
b101 F
b101 @
b0 %
b0 $
1&
#1650000
0&
#1655000
b110 @
b110 F
1&
#1660000
0&
#1665000
b111 F
b111 @
1&
#1670000
0&
#1675000
b1000 @
b1000 F
1&
#1680000
0&
#1685000
b1001 F
b1001 @
1&
#1690000
0&
#1695000
b1010 @
b1010 F
1&
#1700000
0&
#1705000
b1011 F
b1011 @
1&
#1710000
0&
#1715000
b1100 @
b1100 F
b1 J
1&
1(
#1720000
0&
#1725000
b1101 F
b1101 @
b11 J
1&
#1730000
0&
#1735000
b1110 @
b1110 F
b111 J
1&
#1740000
0&
#1745000
b1111 F
b1111 @
b1 M
15
1&
#1750000
0&
#1755000
b10000 1
b10000 K
b10000 Q
b10000 @
b1 N
b1 3
b1 O
b1 P
b10000 F
1&
#1760000
0&
#1765000
b10001 F
b10001 @
b1 I
1&
1'
#1770000
0&
#1775000
b10010 @
b10010 F
b11 I
1&
#1780000
0&
#1785000
b10011 F
b10011 @
b111 I
1&
#1790000
0&
#1795000
b10100 @
b10100 F
b11 M
16
1&
#1800000
0&
#1805000
b100000 1
b100000 K
b100000 Q
b10101 F
b11 N
b10 3
b10 O
b10 P
b10101 @
1&
#1810000
0&
#1815000
b10110 @
b10110 F
b110 J
1&
0(
#1820000
0&
#1825000
b10111 F
b10111 @
b100 J
1&
#1830000
0&
#1835000
b11000 @
b11000 F
b0 J
1&
#1840000
0&
#1845000
b11001 F
b11001 @
b10 M
05
1&
#1850000
0&
#1855000
b110000 1
b110000 K
b110000 Q
b11010 @
b10 N
b11 3
b11 O
b11 P
b11010 F
1&
#1860000
0&
#1865000
b11011 F
b11011 @
b110 I
1&
0'
#1870000
0&
#1875000
b11100 @
b11100 F
b100 I
1&
#1880000
0&
#1885000
b11101 F
b11101 @
b0 I
1&
#1890000
0&
#1895000
b11110 @
b11110 F
b0 M
06
1&
#1900000
0&
#1905000
b1000000 1
b1000000 K
b1000000 Q
b11111 F
b0 N
b100 3
b100 O
b100 P
b11111 @
1&
#1910000
0&
#1915000
b100000 @
b100000 F
1&
#1920000
0&
#1925000
b100001 F
b100001 @
1&
#1930000
0&
#1935000
b100010 @
b100010 F
1&
#1940000
0&
#1945000
b100011 F
b100011 @
1&
#1950000
0&
#1955000
b100100 @
b100100 F
1&
#1960000
0&
#1965000
b100101 F
b100101 @
b1 J
1&
1(
#1970000
0&
#1975000
b100110 @
b100110 F
b11 J
1&
#1980000
0&
#1985000
b100111 F
b100111 @
b111 J
1&
#1990000
0&
#1995000
b101000 @
b101000 F
b1 M
15
1&
#2000000
0&
#2005000
b1010000 1
b1010000 K
b1010000 Q
b101001 F
b1 N
b101 3
b101 O
b101 P
b101001 @
1&
#2010000
0&
#2015000
b101010 @
b101010 F
b1 I
1&
1'
#2020000
0&
#2025000
b101011 F
b101011 @
b11 I
1&
#2030000
0&
#2035000
b101100 @
b101100 F
b111 I
1&
#2040000
0&
#2045000
b101101 F
b101101 @
b11 M
16
1&
#2050000
0&
#2055000
b1100000 1
b1100000 K
b1100000 Q
b101110 @
b11 N
b110 3
b110 O
b110 P
b101110 F
1&
#2060000
0&
#2065000
b101111 F
b101111 @
b110 J
1&
0(
#2070000
0&
#2075000
b110000 @
b110000 F
b100 J
1&
#2080000
0&
#2085000
b110001 F
b110001 @
b0 J
1&
#2090000
0&
#2095000
b110010 @
b110010 F
b10 M
05
1&
#2100000
0&
#2105000
b1110000 1
b1110000 K
b1110000 Q
b110011 F
b10 N
b111 3
b111 O
b111 P
b110011 @
1&
#2110000
0&
#2115000
b110100 @
b110100 F
b110 I
1&
0'
#2120000
0&
#2125000
b110101 F
b110101 @
b100 I
1&
#2130000
0&
#2135000
b110110 @
b110110 F
b0 I
1&
#2140000
0&
#2145000
b110111 F
b110111 @
b0 M
06
1&
#2150000
0&
#2155000
b10000000 1
b10000000 K
b10000000 Q
b111000 @
b0 N
b1000 3
b1000 O
b1000 P
b111000 F
1&
#2160000
0&
#2165000
b111001 F
b111001 @
1&
#2170000
0&
#2175000
b111010 @
b111010 F
1&
#2180000
0&
#2185000
b111011 F
b111011 @
1&
#2190000
0&
#2195000
b111100 @
b111100 F
1&
#2200000
0&
#2205000
b111101 F
b111101 @
1&
#2210000
0&
#2215000
b111110 @
b111110 F
b1 J
1&
1(
#2220000
0&
#2225000
b111111 F
b111111 @
b11 J
1&
#2230000
0&
#2235000
b1000000 @
b1000000 F
b111 J
1&
#2240000
0&
#2245000
b1000001 F
b1000001 @
b1 M
15
1&
#2250000
0&
#2255000
b10010000 1
b10010000 K
b10010000 Q
b1000010 @
b1 N
b1001 3
b1001 O
b1001 P
b1000010 F
1&
#2260000
0&
#2265000
b1000011 F
b1000011 @
b1 I
1&
1'
#2270000
0&
#2275000
b1000100 @
b1000100 F
b11 I
1&
#2280000
0&
#2285000
b1000101 F
b1000101 @
b111 I
1&
#2290000
0&
#2295000
b1000110 @
b1000110 F
b11 M
16
1&
#2300000
0&
#2305000
b10100000 1
b10100000 K
b10100000 Q
b1000111 F
b11 N
b1010 3
b1010 O
b1010 P
b1000111 @
1&
#2310000
0&
#2315000
b1001000 @
b1001000 F
b110 J
1&
0(
#2320000
0&
#2325000
b1001001 F
b1001001 @
b100 J
1&
#2330000
0&
#2335000
b1001010 @
b1001010 F
b0 J
1&
#2340000
0&
#2345000
b1001011 F
b1001011 @
b10 M
05
1&
#2350000
0&
#2355000
b10110000 1
b10110000 K
b10110000 Q
b1001100 @
b10 N
b1011 3
b1011 O
b1011 P
b1001100 F
1&
#2360000
0&
#2365000
b1001101 F
b1001101 @
b110 I
1&
0'
#2370000
0&
#2375000
b1001110 @
b1001110 F
b100 I
1&
#2380000
0&
#2385000
b1001111 F
b1001111 @
b0 I
1&
#2390000
0&
#2395000
b1010000 @
b1010000 F
b0 M
06
1&
#2400000
0&
#2405000
b11000000 1
b11000000 K
b11000000 Q
b1010001 F
b0 N
b1100 3
b1100 O
b1100 P
b1010001 @
1&
#2410000
0&
#2415000
b1010010 @
b1010010 F
1&
#2420000
0&
#2425000
b1010011 F
b1010011 @
1&
#2430000
0&
#2435000
b1010100 @
b1010100 F
1&
#2440000
0&
#2445000
b1010101 F
b1010101 @
1&
#2450000
0&
#2455000
b1010110 @
b1010110 F
1&
#2460000
0&
#2465000
b1010111 F
b1010111 @
b1 J
1&
1(
#2470000
0&
#2475000
b1011000 @
b1011000 F
b11 J
1&
#2480000
0&
#2485000
b1011001 F
b1011001 @
b111 J
1&
#2490000
0&
#2495000
b1011010 @
b1011010 F
b1 M
15
1&
#2500000
0&
#2505000
1)
1"
b11010000 1
b11010000 K
b11010000 Q
b1011011 F
b1 N
b1101 3
b1101 O
b1101 P
b1011011 @
1&
#2510000
0&
#2515000
b1011100 @
b1011100 F
b1 I
1&
1'
#2520000
0&
#2525000
b1011101 F
b1011101 @
b11 I
1&
#2530000
0&
#2535000
b1011110 @
b1011110 F
b111 I
1&
#2540000
0&
#2545000
b1011111 F
b1011111 @
b11 M
16
1&
#2550000
0&
#2555000
b11100000 1
b11100000 K
b11100000 Q
b1100000 @
b11 N
b1110 3
b1110 O
b1110 P
b1100000 F
1&
#2560000
0&
#2565000
b1100001 F
b1100001 @
b110 J
1&
0(
#2570000
0&
#2575000
b1100010 @
b1100010 F
b100 J
1&
#2580000
0&
#2585000
b1100011 F
b1100011 @
b0 J
1&
#2590000
0&
#2595000
b1100100 @
b1100100 F
b10 M
05
1&
#2600000
0&
#2605000
b11110000 1
b11110000 K
b11110000 Q
b1100101 F
b10 N
b1111 3
b1111 O
b1111 P
b1100101 @
1&
#2610000
0&
#2615000
b1100110 @
b1100110 F
b110 I
1&
0'
#2620000
0&
#2625000
b1100111 F
b1100111 @
b100 I
1&
#2630000
0&
#2635000
b1101000 @
b1101000 F
b0 I
1&
#2640000
0&
#2645000
b1101001 F
b1101001 @
b0 M
06
1&
#2650000
0&
#2655000
b100000000 1
b100000000 K
b100000000 Q
b1101010 @
b0 N
b10000 3
b10000 O
b10000 P
b1101010 F
1&
#2660000
0&
#2665000
b1101011 F
b1101011 @
1&
#2670000
b10111110101111000001111110 @
0&
#2675000
b10111110101111000001111111 @
b1101100 F
1&
#2680000
0&
#2685000
b100000000 %
b10000 $
b1101101 F
1.
1/
b0 @
1&
#2690000
0&
#2695000
0"
b0 1
b0 K
b0 Q
0.
0/
b0 @
b0 3
b0 O
b0 P
b0 F
b0 :
b0 9
b0 ;
0-
1*
b11 ,
b1 U
b100000000 W
b10000 V
b11 X
1&
#2700000
0&
#2705000
1&
#2710000
0&
#2715000
1&
#2720000
0&
#2725000
1&
#2730000
0&
#2735000
1&
#2740000
0&
#2745000
1-
0*
1&
#2750000
0&
#2755000
b1 F
b1 @
1&
#2760000
0&
#2765000
b10 @
b10 F
1&
#2770000
0&
#2775000
b11 F
b11 @
1&
#2780000
0&
#2785000
b100 @
b100 F
1&
#2790000
0&
#2795000
b101 F
b101 @
0)
b0 %
b0 $
1&
#2800000
0&
#2805000
b110 @
b110 F
1&
#2810000
0&
#2815000
b111 F
b111 @
b110010 Y
1&
#2820000
0&
#2825000
b1000 @
b1000 F
1&
#2830000
0&
#2835000
b1001 F
b1001 @
1&
#2840000
0&
#2845000
b1010 @
b1010 F
1&
#2850000
0&
#2855000
b1011 F
b1011 @
1&
#2860000
0&
#2865000
b1100 @
b1100 F
b1 I
b1 J
1&
1(
1'
#2870000
0&
#2875000
b1101 F
b1101 @
b11 J
b11 I
1&
#2880000
0&
#2885000
b1110 @
b1110 F
b111 I
b111 J
1&
#2890000
0&
#2895000
b1111 F
b1111 @
15
b11 M
16
1&
#2900000
0&
#2905000
b10000 @
b11 N
b10000 F
1&
#2910000
0&
#2915000
b10001 F
b10001 @
b110 J
b110 I
1&
0(
0'
#2920000
0&
#2925000
b10010 @
b10010 F
b100 I
b100 J
1&
#2930000
0&
#2935000
b10011 F
b10011 @
b0 J
b0 I
1&
#2940000
0&
#2945000
b10100 @
b10100 F
06
b0 M
05
1&
#2950000
0&
#2955000
b10101 F
b0 N
b10101 @
1&
#2960000
0&
#2965000
b10110 @
b10110 F
1&
#2970000
0&
#2975000
b10111 F
b10111 @
1&
#2980000
0&
#2985000
b11000 @
b11000 F
1&
#2990000
0&
#2995000
b11001 F
b11001 @
1&
#3000000
0&
#3005000
b11010 @
b11010 F
1&
#3010000
0&
#3015000
b11011 F
b11011 @
b1 J
b1 I
1&
1(
1'
#3020000
0&
#3025000
b11100 @
b11100 F
b11 I
b11 J
1&
#3030000
0&
#3035000
b11101 F
b11101 @
b111 J
b111 I
1&
#3040000
0&
#3045000
b11110 @
b11110 F
16
b11 M
15
1&
#3050000
0&
#3055000
b11111 F
b11 N
b11111 @
1&
#3060000
0&
#3065000
b100000 @
b100000 F
b110 I
b110 J
1&
0(
0'
#3070000
0&
#3075000
b100001 F
b100001 @
b100 J
b100 I
1&
#3080000
0&
#3085000
b100010 @
b100010 F
b0 I
b0 J
1&
#3090000
0&
#3095000
b100011 F
b100011 @
05
b0 M
06
1&
#3100000
0&
#3105000
b100100 @
b0 N
b100100 F
1&
#3110000
0&
#3115000
b100101 F
b100101 @
1&
#3120000
0&
#3125000
b100110 @
b100110 F
1&
#3130000
0&
#3135000
b100111 F
b100111 @
1&
#3140000
0&
#3145000
b101000 @
b101000 F
1&
#3150000
0&
#3155000
b101001 F
b101001 @
1&
#3160000
0&
#3165000
b101010 @
b101010 F
b1 I
b1 J
1&
1(
1'
#3170000
0&
#3175000
b101011 F
b101011 @
b11 J
b11 I
1&
#3180000
0&
#3185000
b101100 @
b101100 F
b111 I
b111 J
1&
#3190000
0&
#3195000
b101101 F
b101101 @
15
b11 M
16
1&
#3200000
0&
#3205000
b101110 @
b11 N
b101110 F
1&
#3210000
0&
#3215000
b101111 F
b101111 @
b110 J
b110 I
1&
0(
0'
#3220000
0&
#3225000
b110000 @
b110000 F
b100 I
b100 J
1&
#3230000
0&
#3235000
b110001 F
b110001 @
b0 J
b0 I
1&
#3240000
0&
#3245000
b110010 @
b110010 F
06
b0 M
05
1&
#3250000
0&
#3255000
b110011 F
b0 N
b110011 @
1&
#3260000
0&
#3265000
b110100 @
b110100 F
1&
#3270000
0&
#3275000
b110101 F
b110101 @
1&
#3280000
0&
#3285000
b110110 @
b110110 F
1&
#3290000
0&
#3295000
b110111 F
b110111 @
1&
#3300000
0&
#3305000
b111000 @
b111000 F
1&
#3310000
0&
#3315000
b111001 F
b111001 @
b1 J
b1 I
1&
1(
1'
#3320000
0&
#3325000
b111010 @
b111010 F
b11 I
b11 J
1&
#3330000
0&
#3335000
b111011 F
b111011 @
b111 J
b111 I
1&
#3340000
0&
#3345000
b111100 @
b111100 F
16
b11 M
15
1&
#3350000
0&
#3355000
b111101 F
b11 N
b111101 @
1&
#3360000
0&
#3365000
b111110 @
b111110 F
b110 I
b110 J
1&
0(
0'
#3370000
0&
#3375000
b111111 F
b111111 @
b100 J
b100 I
1&
#3380000
0&
#3385000
b1000000 @
b1000000 F
b0 I
b0 J
1&
#3390000
0&
#3395000
b1000001 F
b1000001 @
05
b0 M
06
1&
#3400000
0&
#3405000
b1000010 @
b0 N
b1000010 F
1&
#3410000
0&
#3415000
b1000011 F
b1000011 @
1&
#3420000
0&
#3425000
b1000100 @
b1000100 F
1&
#3430000
0&
#3435000
b1000101 F
b1000101 @
1&
#3440000
0&
#3445000
b1000110 @
b1000110 F
1&
#3450000
0&
#3455000
b1000111 F
b1000111 @
1&
#3460000
0&
#3465000
b1001000 @
b1001000 F
b1 I
b1 J
1&
1(
1'
